{
    "title": "sea dauter",
    "description": "boy",
    "author": "sea",
    "output.name": "site",
    "language": "zh-hans",
    "gitbook": "3.x.x",
    "root": ".",
    "links": {
        "sidebar": {
            "作者Blog": "http://www.matace.com"
        }
    },
    "plugins": [
        "-sharing",
        "sharing-plus",
        "-lunr",
        "-highlight",
        "-livereload",
        "-search",
        "-search-plus",
        "search-pro",
        "insert-logo",
        "highlight-code",
        "alerts",
        "terminal",
        "code",
        "expandable-chapters",
        "edit-link",
        "splitter",
        "github",
        "page-footer-ex",
        "hide-element",
        "pageview-count"
    ],
    "pluginsConfig": {
        "theme-default": {
            "showLevel": true
        },
        "insert-logo": {
            "url": "/src/img/logo.png",
            "style": "background: none; max-height: 30px; min-height: 30px"
          },
        "terminal": {
            "copyButtons": false,
            "fade": true,
            "style": "flat"
        },
        "hide-element": {
            "elements": [".gitbook-link"]
        },
        "code": {
            "copyButtons": true
        },
        "fontSettings": {
            "theme": "white",
            "family": "msyh",
            "size": 2
        },
        "edit-link": {
            "base": "https://gitlab.com/MATACE/wbook",
            "label": "编辑此页"
        },
        "github": {
            "url": "https://github.com/MATACE"
          },
        "sharing": {
            "douban": false,
            "facebook": false,
            "google": false,
            "hatenaBookmark": false,
            "instapaper": false,
            "line": false,
            "linkedin": false,
            "messenger": false,
            "pocket": false,
            "qq": true,
            "qzone": true,
            "stumbleupon": false,
            "twitter": false,
            "viber": false,
            "vk": false,
            "weibo": true,
            "whatsapp": false,
            "all": [
                "facebook",
                "google",
                "twitter",
                "weibo",
                "qq",
                "linkedin",
                "qzone",
                "douban"
            ]
        }
    },
    "page-footer-ex": {
        "copyright": "By [蓝&羽](http://www.matace.com)，使用[知识共享 署名-相同方式共享 4.0协议](https://creativecommons.org/licenses/by-sa/4.0/)发布",
        "markdown": true,
        "update_label": "此页面修订于：",
        "update_format": "YYYY-MM-DD HH:mm:ss"
    }
}